Year,1960,1970,1980,1990,2000,2010,M2020,M2030,M2040,M2050,M2060,O2020,O2030,O2040,O2050,O2060
Oil,52,98,130.3,135.7,153.3,173.1,190.2,199.6,188.7,160.5,132.4,196.4,214,221.8,220.7,201.4
Biofuels,0,0,0.1,0.3,0.5,2.5,6.6,8.6,10,10.2,13.5,4.6,5.5,7.2,14.2,25.9
Natural Gas,18.9,35.3,51.6,70.2,87.3,114.8,149.7,188.8,226.2,237.7,234.8,147.9,169.2,187.3,185.6,175.4
Biomass Gasified,0,0,0,0,0.2,1.3,5.4,11.5,18.2,33.9,41.7,7.8,19.8,20.4,22.1,26.8
Coal,52.2,61.6,75.9,94.2,100.1,146.2,184.8,199,191.4,211.8,247,202.7,222.3,201.7,218.6,204.2
Biomass/Waste Solids,6.6,7.7,9.8,11.6,13.3,17.1,14,10.5,16.3,26.3,31.9,18.7,14.1,15.5,17.7,21.4
Biomass Traditional,14.9,18,21.5,26,29.3,33.2,35.1,37.6,39.9,42,45.9,28.9,26.9,24.2,24.3,22.5
Nuclear,0,0.9,7.8,22,28.3,30.1,37.5,55.6,74.6,91.9,107.5,33.3,42.1,47.2,52.4,54.7
Hydro-electricity,2.6,4.2,6.2,7.8,9.5,12.4,13.2,14.7,16.7,18.7,20.7,13.5,14.8,16.8,18.7,20.6
Geothermal,0.1,0.2,0.5,1.4,2.1,2.4,4,6.1,9.4,14.7,30.8,5.1,9.7,18.9,26.4,34.1
Solar,0,0,0,0.1,0.2,0.8,3.6,11.3,19.5,32.1,51.3,4.4,25.2,70.1,132.6,209.6
Wind,0,0,0,0,0.1,1.2,3,5.2,11.5,21.8,34.3,4.7,13.2,24.7,42.4,59.3
Other Renewables,0,0,0,0,0,0,0,0,0,0,0.1,0,0,0,0.1,0.2